{
    "appswift": {
        "continueTheming": true,
        "shouldCommitCode": true,
        "scmType": "git",
        "scmUserName": "Arenas",
        "scmPwd": "Pa55word",
        "scmUrl": "http://10.102.22.61:9292/Arenas/Gentera.git"
    }
}